{
  "CacheSourceKey": "j9o1c8",
  "CachePdfKey": "j9o1c8/j9o1c8-10z0xqk.pdf",
  "CacheXpzKey": "j9o1c8/j9o1c8-y6nil5.xpz",
  "CacheInfoKey": "j9o1c8/j9o1c8-y6nil5.json",
  "CacheCopyKey": null,
  "Document": "-8586224635325468925.docx",
  "DocumentHandlerType": null,
  "DocumentHandlerParameters": null,
  "DocumentLocation": "D:\\Workspace\\EDMS PVGAS_SEG_V2\\Source\\Web\\EDMs.Web\\DocumentLibrary\\ProjectDocs",
  "DocumentFileName": "-8586224635325468925.docx",
  "InputOptions": {
    "$type": "GleamTech.DocumentUltimate.WordProcessingInputOptions, GleamTech.DocumentUltimate",
    "FieldFileName": null,
    "UpdateFields": true,
    "Encoding": null,
    "Format": "Docx",
    "Password": null
  },
  "PdfOutputOptions": {
    "Watermarks": [],
    "FastWebViewEnabled": false,
    "Password": null,
    "Format": "Pdf"
  },
  "XpzOutputOptions": {
    "Password": "j9o1c8",
    "HighQualityEnabled": false,
    "Format": "Xpz"
  }
}